Getting data into R
…
This makes it easy to add lots of additional sample data columns that can be used to subset the data.

Importing data into R

Importing data into R can be quite easy if the data is formatted well, but can be a very frustrating experience otherwise. In summary, well formatted tabular data consists of .csv (comma-separated value) or .tsv (tab-separated value) files, each with a single table and no additional comments or formatting. Either of these formats might also have a .txt extension instead. For more information on correct data formatting, see the data formating section of our guide for reporducible research. You should always import the raw output data whenever possible and avoid any “manual” (i.e. non-scripted) modification of the data, especially in programs like Excel, which are known to mangle data from time to time.

Throughout this workshop, we will be data from Wagner et al. (2016), a study on the effects of plant age, genotype, and environment on the bacterial microbiome. Wagner et al. (2016) released their raw data with the article and it is available here on dryad. This is a great example of how to share your raw data.

There are many functions commonly used to read tabular data, including the traditional ones like read.table and read.csv, but we will be using functions from the new readr package, which returns “tibbles” instead of data.frames (A “table” in R). Tibbles are a type of data.frame with some fancier printing and more consistent behavior. Lets read in the raw OTU table first:

library(readr) # Loads the readr package so we can use `read_tsv`
otu_data <- read_tsv("data/otuTable97.txt")
print(otu_data) # You can also simply enter `otu_data` to print it

## # A tibble: 47,806 x 1,699
##    OTU_ID M1024P1833 M1551P81 M1551P57 M1551P85 M1551P28 M1551P29 M1551P38
##     <int>      <dbl>    <dbl>    <dbl>    <dbl>    <dbl>    <dbl>    <dbl>
##  1      1          0        0        0        0        0        0        0
##  2      2         41       22        4      726   112492        2      413
##  3      3         67       65       12    13514        1        4    13314
##  4      4       3229    13679     1832      951      113     2496      567
##  5      5       1200       92     3530     2008        0      183     2087
##  6      6        219     1980     1200      499        1      781      214
##  7      7        485     5123      755     4080      443     1278     2193
##  8      8        840     7079     3760       22        0     2699       22
##  9      9         40       82       91      881        1      449     1121
## 10     10         11       79      277     2879        1        0     6811
## # ... with 47,796 more rows, and 1691 more variables: M1551P90 <dbl>,
## #   M1551P71 <dbl>, M1551P12 <dbl>, M1551P84 <dbl>, M1551P48 <dbl>,
## #   M1551P4 <dbl>, M1551P52 <dbl>, M1551P3 <dbl>, M1551P15 <dbl>,
## #   M1551P31 <dbl>, M1551P75 <dbl>, M1551P88 <dbl>, M1551P47 <dbl>,
## #   M1551P77 <dbl>, M1551P86 <dbl>, M1551P50 <dbl>, M1551P37 <dbl>,
## #   M1551P34 <dbl>, M1551P64 <dbl>, M1551P91 <dbl>, M1551P41 <dbl>,
## #   M1551P78 <dbl>, M1551P46 <dbl>, M1551P40 <dbl>, M1551P74 <dbl>,
## #   M1551P72 <dbl>, M1551P14 <dbl>, M1551P89 <dbl>, M1551P67 <dbl>,
## #   M1551P1 <dbl>, M1551P10 <dbl>, M1551P18 <dbl>, M1551P76 <dbl>,
…
## Parsed with column specification:
## cols(
##   `OTU ID` = col_character(),
##   taxonomy = col_character(),
##   Kingdom = col_character(),
##   Phylum = col_character(),
##   Class = col_character(),
##   Order = col_character(),
##   Family = col_character(),
##   Confidence = col_double()
## )

print(tax_data) # You can also simply enter `tax_data` to print it

## # A tibble: 47,806 x 8
##     `OTU ID`
##        <chr>
##  1     OTU_1
##  2    OTU_10
##  3   OTU_100
##  4  OTU_1000
##  5 OTU_10000
##  6 OTU_10001
##  7 OTU_10002
##  8 OTU_10003
##  9 OTU_10004
## 10 OTU_10005
## # ... with 47,796 more rows, and 7 more variables: taxonomy <chr>,
## #   Kingdom <chr>, Phylum <chr>, Class <chr>, Order <chr>, Family <chr>,
## #   Confidence <dbl>

Although this data is very well-formatted, it is not perfect. The “OTU ID” column contains a space in the name (hence the back ticks), which makes it a bit more annoying to work with in R. More importantly, the OTU IDs in the taxonomy table are prefixed with “OTU_” and those in the OTU table are not, so we have to remove that prefix to make the two match up:

tax_data$`OTU ID` <- sub(tax_data$`OTU ID`, # ` are needed because of the space
                         pattern = "OTU_", replacement = "")
tax_data$`OTU ID` <- as.numeric(tax_data$`OTU ID`) # The OTU ID in the OTU table is numeric
print(tax_data) 

## # A tibble: 47,806 x 8
##    `OTU ID`
##       <dbl>
##  1        1
##  2       10
##  3      100
##  4     1000
##  5    10000
##  6    10001
##  7    10002
##  8    10003
##  9    10004
## 10    10005
## # ... with 47,796 more rows, and 7 more variables: taxonomy <chr>,
## #   Kingdom <chr>, Phylum <chr>, Class <chr>, Order <chr>, Family <chr>,
## #   Confidence <dbl>

Although we could proceed with the analysis using separate OTU and taxonomy tables, lets combine them to simplify things. Since the rows are in different order, we need to combine (aka “join”) them based on their OTU ID. We will use the dplyr package for this.

library(dplyr) # Loads the dplyr package so we can use `left_join`
otu_data <- left_join(otu_data, tax_data,
                      by = c("OTU_ID" = "OTU ID")) # identifies cols with shared IDs
print(otu_data)

## # A tibble: 47,806 x 1,706
##    OTU_ID M1024P1833 M1551P81 M1551P57 M1551P85 M1551P28 M1551P29 M1551P38
##     <dbl>      <dbl>    <dbl>    <dbl>    <dbl>    <dbl>    <dbl>    <dbl>
##  1      1          0        0        0        0        0        0        0
##  2      2         41       22        4      726   112492        2      413
##  3      3         67       65       12    13514        1        4    13314
##  4      4       3229    13679     1832      951      113     2496      567
##  5      5       1200       92     3530     2008        0      183     2087
##  6      6        219     1980     1200      499        1      781      214
##  7      7        485     5123      755     4080      443     1278     2193
##  8      8        840     7079     3760       22        0     2699       22
##  9      9         40       82       91      881        1      449     1121
## 10     10         11       79      277     2879        1        0     6811
## # ... with 47,796 more rows, and 1698 more variables: M1551P90 <dbl>,
## #   M1551P71 <dbl>, M1551P12 <dbl>, M1551P84 <dbl>, M1551P48 <dbl>,
## #   M1551P4 <dbl>, M1551P52 <dbl>, M1551P3 <dbl>, M1551P15 <dbl>,
## #   M1551P31 <dbl>, M1551P75 <dbl>, M1551P88 <dbl>, M1551P47 <dbl>,
## #   M1551P77 <dbl>, M1551P86 <dbl>, M1551P50 <dbl>, M1551P37 <dbl>,
## #   M1551P34 <dbl>, M1551P64 <dbl>, M1551P91 <dbl>, M1551P41 <dbl>,
## #   M1551P78 <dbl>, M1551P46 <dbl>, M1551P40 <dbl>, M1551P74 <dbl>,
## #   M1551P72 <dbl>, M1551P14 <dbl>, M1551P89 <dbl>, M1551P67 <dbl>,
## #   M1551P1 <dbl>, M1551P10 <dbl>, M1551P18 <dbl>, M1551P76 <dbl>,
…
print(sample_data) # You can also simply enter `sample_data` to print it

## # A tibble: 1,698 x 16
##      SampleID        Name Plant_ID  Type Experiment Cohort Harvested   Age
##         <chr>       <chr>    <chr> <chr>      <chr>  <int>     <int> <int>
##  1 M1024P1788  R_026.root    R_026  root  fieldBCMA   2008      2011     3
##  2 M1024P1791  R_073.root    R_073  root  fieldBCMA   2008      2011     3
##  3 M1024P1795  R_088.root    R_088  root  fieldBCMA   2009      2011     2
##  4 M1024P1807  R_156.root    R_156  root  fieldBCMA   2009      2011     2
##  5  M1955P804  1_A_1.root    1_A_1  root      ecoGH     NA      2011    NA
##  6  M1956P837 1_A_12.root   1_A_12  root      ecoGH     NA      2011    NA
##  7  M1957P983  1_A_3.root    1_A_3  root      ecoGH     NA      2011    NA
##  8  M1956P845  1_A_4.root    1_A_4  root      ecoGH     NA      2011    NA
##  9  M1957P987  1_A_7.root    1_A_7  root      ecoGH     NA      2011    NA
## 10  M1957P923  1_A_8.root    1_A_8  root      ecoGH     NA      2011    NA
## # ... with 1,688 more rows, and 8 more variables: Site <chr>,
## #   Treatment <chr>, Line <chr>, Genotype <chr>, Block <chr>,
## #   oldPlate <chr>, newPlate <chr>, Analysis <chr>
…
This tells us that the OTUs are assigned to 1922 unique taxa. This number included “coarse” taxa such as “Bacteria”.

Note how our original data are now inside this object:

print(obj$data)

## $tax_data
## # A tibble: 47,806 x 1,707
##    taxon_id OTU_ID M1024P1833 M1551P81 M1551P57 M1551P85 M1551P28 M1551P29
##       <chr>  <dbl>      <dbl>    <dbl>    <dbl>    <dbl>    <dbl>    <dbl>
##  1      bfz      1          0        0        0        0        0        0
##  2      bga      2         41       22        4      726   112492        2
##  3      bgb      3         67       65       12    13514        1        4
##  4      bga      4       3229    13679     1832      951      113     2496
##  5      bgc      5       1200       92     3530     2008        0      183
##  6      bgd      6        219     1980     1200      499        1      781
##  7      bge      7        485     5123      755     4080      443     1278
##  8      bgf      8        840     7079     3760       22        0     2699
##  9      bgg      9         40       82       91      881        1      449
## 10      bgh     10         11       79      277     2879        1        0
## # ... with 47,796 more rows, and 1699 more variables: M1551P38 <dbl>,
## #   M1551P90 <dbl>, M1551P71 <dbl>, M1551P12 <dbl>, M1551P84 <dbl>,
## #   M1551P48 <dbl>, M1551P4 <dbl>, M1551P52 <dbl>, M1551P3 <dbl>,
## #   M1551P15 <dbl>, M1551P31 <dbl>, M1551P75 <dbl>, M1551P88 <dbl>,
## #   M1551P47 <dbl>, M1551P77 <dbl>, M1551P86 <dbl>, M1551P50 <dbl>,
## #   M1551P37 <dbl>, M1551P34 <dbl>, M1551P64 <dbl>, M1551P91 <dbl>,
## #   M1551P41 <dbl>, M1551P78 <dbl>, M1551P46 <dbl>, M1551P40 <dbl>,
## #   M1551P74 <dbl>, M1551P72 <dbl>, M1551P14 <dbl>, M1551P89 <dbl>,
## #   M1551P67 <dbl>, M1551P1 <dbl>, M1551P10 <dbl>, M1551P18 <dbl>,
…
It also now has a “taxon_id” column, which maps to a particular taxon on the tree. This column is essential for the manipulation functions of taxa we will cover later.

Subsetting the data

Since this is such a large data set, we will subset it to make this workshop go faster and work on less powerful computers.

First, lets subset the samples to jsut those in main experiment described in Wagner et al. (2016):

sample_data <- subset(sample_data, Experiment == "ecotypes")
print(sample_data)

## # A tibble: 826 x 16
##      SampleID        Name Plant_ID  Type Experiment Cohort Harvested   Age
##         <chr>       <chr>    <chr> <chr>      <chr>  <int>     <int> <int>
##  1   M1551P35 8_0008.leaf   8_0008  leaf   ecotypes   2008      2011     3
##  2   M1551P77 8_0008.root   8_0008  root   ecotypes   2008      2011     3
##  3  M1555P268 8_0016.leaf   8_0016  leaf   ecotypes   2008      2011     3
##  4  M1555P195 8_0016.root   8_0016  root   ecotypes   2008      2011     3
##  5   M1551P40 8_0019.leaf   8_0019  leaf   ecotypes   2008      2011     3
##  6  M1554P153 8_0019.root   8_0019  root   ecotypes   2008      2011     3
##  7    M1551P8 8_0024.leaf   8_0024  leaf   ecotypes   2008      2011     3
##  8  M1979P394 8_0024.root   8_0024  root   ecotypes   2008      2011     3
##  9   M1551P20 8_0028.leaf   8_0028  leaf   ecotypes   2008      2011     3
## 10 M1977P1719 8_0028.root   8_0028  root   ecotypes   2008      2011     3
## # ... with 816 more rows, and 8 more variables: Site <chr>,
## #   Treatment <chr>, Line <chr>, Genotype <chr>, Block <chr>,
## #   oldPlate <chr>, newPlate <chr>, Analysis <chr>
…
