Manipulating taxonomic data
…
The challenge of hierarchical data

Tabular data is relatively straight forward to manipulate if you know some R already, but taxonomic data is hierarchical, making it much harder to work with. It gets even more complicated when there are other data mapped to (i.e. associated with) the taxonomy.

For example, if we want to remove a bacterial phylum from the data, do we also remove all of the taxa within that phylum? If so, how do we identify which taxa are in that phylum? Depending on the format the data is in, this might be hard. If other data (e.g. OTU counts) are associated with taxa within that phylum, do we also remove those? After all, even if the phylum and the taxa within it are removed, we still know that all the associated data are bacterial, so do we reassign them to the Bacteria taxon, or just throw those data out? The answer to these kind of questions will depend on our data and what we want to do with it.

Subsetting tabular data

The functions to subset taxonomic information in taxmap objects (the format our example data is in) provided by the taxa package are modeled after functions in the dplyr package for manipulating tabular data (@wickham2015dplyr). These dplyr functions are alternatives to the standard R indexing (e.g. [, [[, and $) designed to be be more intuitive and consistent. Since an understanding of these functions will help with the analogous (and more complicated) functions for taxonomic data, we will start by practicing these. Fortunately, we have a tabular data set in need of some subsetting: our sample data.

First, lets take another look at our sample data:

print(sample_data)

## # A tibble: 1,698 x 16
##    SampleID  Name   Plant_ID Type  Experiment Cohort Harvested Age   Site  Treatment Line  Genotype
##    <chr>     <chr>  <chr>    <chr> <chr>      <chr>  <chr>     <chr> <chr> <chr>     <chr> <chr>   
##  1 M1024P17… R_026… R_026    root  fieldBCMA  2008   2011      3     LTM   field     26    ril     
##  2 M1024P17… R_073… R_073    root  fieldBCMA  2008   2011      3     LTM   field     73    ril     
##  3 M1024P17… R_088… R_088    root  fieldBCMA  2009   2011      2     LTM   field     88    ril     
##  4 M1024P18… R_156… R_156    root  fieldBCMA  2009   2011      2     LTM   field     156   ril     
##  5 M1955P804 1_A_1… 1_A_1    root  ecoGH      NA     2011      NA    Duke  MAHsoil   par1… PAR     
##  6 M1956P837 1_A_1… 1_A_12   root  ecoGH      NA     2011      NA    Duke  MAHsoil   mah3… MAH     
##  7 M1957P983 1_A_3… 1_A_3    root  ecoGH      NA     2011      NA    Duke  MAHsoil   silL… SIL     
##  8 M1956P845 1_A_4… 1_A_4    root  ecoGH      NA     2011      NA    Duke  MAHsoil   par1… PAR     
##  9 M1957P987 1_A_7… 1_A_7    root  ecoGH      NA     2011      NA    Duke  MAHsoil   par9… PAR     
## 10 M1957P923 1_A_8… 1_A_8    root  ecoGH      NA     2011      NA    Duke  MAHsoil   mil5… MIL     
## # ... with 1,688 more rows, and 4 more variables: Block <chr>, oldPlate <chr>, newPlate <chr>,
## #   Analysis <chr>
…
If there were other tables in obj$data the data for those taxa would have been removed as well unless drop_obs = FALSE was added. Since there is only the one table, we dont need to worry about that.

Exercises

Subsetting tabular data

In these exercises, we will be using the table sample_data from the analysis above.

1) Try to subset sample_data to just “leaf” samples using standard R indexing (e.g. my_table[rows, columns]).

Show solution

sample_data[sample_data$Type == "leaf", ]

## # A tibble: 146 x 16
## # Groups:   Plant_ID [146]
##    SampleID  Name   Plant_ID Type  Experiment Cohort Harvested Age   Site  Treatment Line  Genotype
##    <chr>     <chr>  <chr>    <chr> <chr>      <chr>  <chr>     <chr> <chr> <chr>     <chr> <chr>   
##  1 M1981P563 8_005… 8_0053   leaf  ecotypes   2008   2011      3     Mah   field     MAH.… MAH     
##  2 M1980P502 8_007… 8_0074   leaf  ecotypes   2008   2011      3     Mah   field     JAM.… JAM     
##  3 M1981P599 8_008… 8_0087   leaf  ecotypes   2008   2011      3     Mah   field     MIL.… MIL     
##  4 M1981P587 8_009… 8_0090   leaf  ecotypes   2008   2011      3     Mah   field     SILL… SIL     
##  5 M1979P447 8_009… 8_0096   leaf  ecotypes   2008   2011      3     Mah   field     PAR.… PAR     
##  6 M1982P661 8_014… 8_0149   leaf  ecotypes   2008   2011      3     Jam   field     SILL… SIL     
##  7 M1980P462 8_015… 8_0157   leaf  ecotypes   2008   2011      3     Jam   field     MIL.… MIL     
##  8 M1980P471 8_015… 8_0158   leaf  ecotypes   2008   2011      3     Jam   field     JAM.… JAM     
##  9 M1982P655 8_016… 8_0167   leaf  ecotypes   2008   2011      3     Jam   field     PAR.… PAR     
## 10 M1981P623 8_017… 8_0174   leaf  ecotypes   2008   2011      3     Jam   field     MAH.… MAH     
## # ... with 136 more rows, and 4 more variables: Block <chr>, oldPlate <chr>, newPlate <chr>,
## #   Analysis <chr>

2) Try to do the same thing using the filter function from the dplyr package.

Show solution

filter(sample_data, Type == "leaf")

## # A tibble: 146 x 16
## # Groups:   Plant_ID [146]
##    SampleID  Name   Plant_ID Type  Experiment Cohort Harvested Age   Site  Treatment Line  Genotype
##    <chr>     <chr>  <chr>    <chr> <chr>      <chr>  <chr>     <chr> <chr> <chr>     <chr> <chr>   
##  1 M1981P563 8_005… 8_0053   leaf  ecotypes   2008   2011      3     Mah   field     MAH.… MAH     
##  2 M1980P502 8_007… 8_0074   leaf  ecotypes   2008   2011      3     Mah   field     JAM.… JAM     
##  3 M1981P599 8_008… 8_0087   leaf  ecotypes   2008   2011      3     Mah   field     MIL.… MIL     
##  4 M1981P587 8_009… 8_0090   leaf  ecotypes   2008   2011      3     Mah   field     SILL… SIL     
##  5 M1979P447 8_009… 8_0096   leaf  ecotypes   2008   2011      3     Mah   field     PAR.… PAR     
##  6 M1982P661 8_014… 8_0149   leaf  ecotypes   2008   2011      3     Jam   field     SILL… SIL     
##  7 M1980P462 8_015… 8_0157   leaf  ecotypes   2008   2011      3     Jam   field     MIL.… MIL     
##  8 M1980P471 8_015… 8_0158   leaf  ecotypes   2008   2011      3     Jam   field     JAM.… JAM     
##  9 M1982P655 8_016… 8_0167   leaf  ecotypes   2008   2011      3     Jam   field     PAR.… PAR     
## 10 M1981P623 8_017… 8_0174   leaf  ecotypes   2008   2011      3     Jam   field     MAH.… MAH     
## # ... with 136 more rows, and 4 more variables: Block <chr>, oldPlate <chr>, newPlate <chr>,
## #   Analysis <chr>
…
3a) Subset obj to just “Actinobacteria” and all of its subtaxa.

Show solution

filter_taxa(obj, taxon_names == "Actinobacteria", subtaxa = TRUE)

## <Taxmap>
##   72 taxa: aag. Actinobacteria, ade. Actinobacteria ... cfp. Dermacoccaceae
##   72 edges: NA->aag, aag->ade, aag->ado, aag->ady ... amj->cbz, anq->cfe, amj->cfp
##   1 data sets:
##     otu_counts:
##       # A tibble: 1,781 x 294
##         taxon_id OTU_ID M1981P563 M1977P1709 M1980P502 M1981P606 M1981P599 M1981P611
##         <chr>    <chr>      <dbl>      <dbl>     <dbl>     <dbl>     <dbl>     <dbl>
##       1 beq      6            70.      4055.      206.     2415.        2.     2901.
##       2 bev      11           45.      1994.       17.     1741.        0.     1598.
##       3 bew      12          711.      3553.      501.     2220.        1.     2410.
##       # ... with 1,778 more rows, and 286 more variables: M1981P587 <dbl>,
##       #   M1982P729 <dbl>, M1979P447 <dbl>, M1982P701 <dbl>, M1982P661 <dbl>,
##       #   M1978P293 <dbl>, M1980P462 <dbl>, M1555P221 <dbl>, M1980P471 <dbl>,
##       #   M1979P422 <dbl>, …
…
In these exercises, we will be using the taxmap object obj from the analysis above. For the questions below, do not overwrite the obj with result of filtering (i.e. don’t assign the result to obj).

1a) Use filter_obs to remove all rows of “otu_counts” that have less than 5 reads in the first sample, “M1981P563” without removing any taxa in the taxonomy.

Show solution

filter_obs(obj, "otu_counts", M1981P563 > 5)

## <Taxmap>
##   704 taxa: aad. Bacteria, aaf. Proteobacteria ... cgz. S24-7, chs. Alcanivoracaceae
##   704 edges: NA->aad, aad->aaf, aad->aag, aad->aah ... amg->cgf, arh->cgz, apt->chs
##   1 data sets:
##     otu_counts:
##       # A tibble: 235 x 294
##         taxon_id OTU_ID M1981P563 M1977P1709 M1980P502 M1981P606 M1981P599 M1981P611
##         <chr>    <chr>      <dbl>      <dbl>     <dbl>     <dbl>     <dbl>     <dbl>
##       1 ben      2             7.         0.        2.        7.        1.        7.
##       2 beo      3         10251.        59.    15857.      309.      134.       90.
##       3 ben      4          1447.      2496.     2421.     3331.      143.     1847.
##       # ... with 232 more rows, and 286 more variables: M1981P587 <dbl>, M1982P729 <dbl>,
##       #   M1979P447 <dbl>, M1982P701 <dbl>, M1982P661 <dbl>, M1978P293 <dbl>,
##       #   M1980P462 <dbl>, M1555P221 <dbl>, M1980P471 <dbl>, M1979P422 <dbl>, …
…
# Also works: filter_obs(obj, "otu_counts", obj$data$otu_counts$M1981P563 > 5)

1b) Modify the previous command to remove taxa as well as rows in the table.

Show solution

filter_obs(obj, "otu_counts", M1981P563 > 5, drop_taxa = TRUE)

## <Taxmap>
##   101 taxa: aad. Bacteria, aaf. Proteobacteria ... btg. Bogoriellaceae
##   101 edges: NA->aad, aad->aaf, aad->aag, aad->aah ... aor->bkv, aoj->bln, amj->btg
##   1 data sets:
##     otu_counts:
##       # A tibble: 235 x 294
##         taxon_id OTU_ID M1981P563 M1977P1709 M1980P502 M1981P606 M1981P599 M1981P611
##         <chr>    <chr>      <dbl>      <dbl>     <dbl>     <dbl>     <dbl>     <dbl>
##       1 ben      2             7.         0.        2.        7.        1.        7.
##       2 beo      3         10251.        59.    15857.      309.      134.       90.
##       3 ben      4          1447.      2496.     2421.     3331.      143.     1847.
##       # ... with 232 more rows, and 286 more variables: M1981P587 <dbl>, M1982P729 <dbl>,
##       #   M1979P447 <dbl>, M1982P701 <dbl>, M1982P661 <dbl>, M1978P293 <dbl>,
##       #   M1980P462 <dbl>, M1555P221 <dbl>, M1980P471 <dbl>, M1979P422 <dbl>, …
##   0 functions:

2a) The function calc_prop_samples from the metacoder package returns the proportion of samples each OTU appears in (i.e. has a non-zero count):

library(metacoder)
calc_prop_samples(obj, dataset = "otu_counts", groups = sample_data$Type)

## No `cols` specified, so using all numeric columns:
##    M1981P563, M1977P1709, M1980P502, M1981P606 ... M1955P747, M1978P342, M1955P778

## Calculating the proportion of samples with a value greater than 0 for 292 columns in 2 groups for 21684 observations

## # A tibble: 21,684 x 3
##    taxon_id  leaf  root
##    <chr>    <dbl> <dbl>
##  1 ben      0.863 0.815
##  2 beo      1.00  1.00 
##  3 ben      1.00  1.00 
##  4 bep      0.932 1.00 
##  5 beq      0.911 1.00 
##  6 amk      1.00  1.00 
##  7 bes      0.911 1.00 
##  8 bet      0.979 0.986
##  9 beu      0.979 0.993
## 10 bev      0.925 1.00 
## # ... with 21,674 more rows

Using the groups option, it can do the calculation on columns grouped by treatment:

calc_prop_samples(obj, dataset = "otu_counts", groups = sample_data$Type)

## No `cols` specified, so using all numeric columns:
##    M1981P563, M1977P1709, M1980P502, M1981P606 ... M1955P747, M1978P342, M1955P778

## Calculating the proportion of samples with a value greater than 0 for 292 columns in 2 groups for 21684 observations

## # A tibble: 21,684 x 3
##    taxon_id  leaf  root
##    <chr>    <dbl> <dbl>
##  1 ben      0.863 0.815
##  2 beo      1.00  1.00 
##  3 ben      1.00  1.00 
##  4 bep      0.932 1.00 
##  5 beq      0.911 1.00 
##  6 amk      1.00  1.00 
##  7 bes      0.911 1.00 
##  8 bet      0.979 0.986
##  9 beu      0.979 0.993
## 10 bev      0.925 1.00 
## # ... with 21,674 more rows
…
Since the “sample_props” table is derived from the “otu_counts” table and in the same order, we can use values from it to subset “otu_counts”. Using filter_obs, try to subset “otu_counts” to taxa that do not appear in leaf samples, but appear in at least 90% of root samples. Remove any taxa not represented by these OTUs unique to roots.

Show solution

filter_obs(obj, "otu_counts", leaf == 0, root > 0.9, drop_taxa = TRUE)

## <Taxmap>
##   16 taxa: aad. Bacteria, aaf. Proteobacteria ... bkd. Ellin517, blb. auto67_4W
##   16 edges: NA->aad, aad->aaf, aad->aai, aad->aak ... amh->beo, aoo->bkd, aoo->blb
##   2 data sets:
##     otu_counts:
##       # A tibble: 5 x 294
##         taxon_id OTU_ID M1981P563 M1977P1709 M1980P502 M1981P606 M1981P599 M1981P611
##         <chr>    <chr>      <dbl>      <dbl>     <dbl>     <dbl>     <dbl>     <dbl>
##       1 amm      983           0.        15.        0.        6.        0.       26.
##       2 aqn      988           0.        13.        0.        7.        0.       17.
##       3 blb      1252          0.        39.        0.       11.        0.       20.
##       # ... with 2 more rows, and 286 more variables: M1981P587 <dbl>, M1982P729 <dbl>,
##       #   M1979P447 <dbl>, M1982P701 <dbl>, M1982P661 <dbl>, M1978P293 <dbl>,
##       #   M1980P462 <dbl>, M1555P221 <dbl>, M1980P471 <dbl>, M1979P422 <dbl>, …
##     sample_props:
##       # A tibble: 1,106 x 3
##         taxon_id  leaf  root
##         <chr>    <dbl> <dbl>
##       1 beo      1.00  1.00 
##       2 beo      0.986 1.00 
##       3 beo      0.952 0.973
##       # ... with 1,103 more rows
…
