…
Note how both sides of the legend on the bottom right have numbers now. The left side is the color legend and the right is the size legend.

Setting edge attributes

Just like the node size/color, the edge size/color can be used to display statistics. Edges can also have labels. This means you can plot 4 statistics in one graph, although more than 3 is typically overwhelming. However, we need some more things to graph, so we will calculate the number of reads in each taxon, grouping samples by leaf/root samples.

obj$data$tax_abund <- calc_taxon_abund(obj, "otu_counts",
                                       cols = sample_data$SampleID,
                                       groups = sample_data$Type)

## Summing per-taxon counts from 292 columns in 2 groups for 704 taxa

print(obj$data$tax_abund)

## # A tibble: 704 x 3
##    taxon_id    leaf     root
##  * <chr>      <dbl>    <dbl>
##  1 aad      9756557 14913548
##  2 aaf      6453231  6545249
##  3 aag       986779  4018650
##  4 aah       449603   220102
##  5 aai      1640232  1629309
##  6 aaj        29798    76133
##  7 aak        18195   442261
##  8 aal        20625   503211
##  9 aam        10398   220376
## 10 aan        68473   738385
## # ... with 694 more rows
…
