Data quality control
…
## [1] 14990

So now 14990 of 21684 have no reads. We can remove them and the taxa they are associated with like so:

obj <- filter_obs(obj, "otu_counts", ! no_reads, drop_taxa = TRUE)
print(obj)

## <Taxmap>
##   489 taxa: aad. Bacteria, aaf. Proteobacteria ... ccz. Enterococcaceae, cfp. Dermacoccaceae
##   489 edges: NA->aad, aad->aaf, aad->aag, aad->aah ... amj->byk, aqy->ccz, amj->cfp
##   1 data sets:
##     otu_counts:
##       # A tibble: 6,694 x 293
##         taxon_id M1981P563 M1977P1709 M1980P502 M1981P606 M1981P599 M1981P611 M1981P587
##         <chr>        <dbl>      <dbl>     <dbl>     <dbl>     <dbl>     <dbl>     <dbl>
##       1 ben             0.         0.        0.        0.        0.        0.       24.
##       2 beo         10251.        59.    15857.      309.      134.       90.    11391.
##       3 ben          1447.      2496.     2421.     3331.      143.     1847.     2120.
##       # ... with 6,691 more rows, and 285 more variables: M1982P729 <dbl>,
##       #   M1979P447 <dbl>, M1982P701 <dbl>, M1982P661 <dbl>, M1978P293 <dbl>,
##       #   M1980P462 <dbl>, M1555P221 <dbl>, M1980P471 <dbl>, M1979P422 <dbl>,
##       #   M1982P655 <dbl>, M1554P182 <dbl>, M1981P623 <dbl>, M1555P239 <dbl>,
##       #   M1958P1020 <dbl>, M1555P205 <dbl>, M1959P1121 <dbl>, M1551P83 <dbl>,
##       #   M1961P1359 <dbl>, M1551P21 <dbl>, M1690P1399 <dbl>, M1555P214 <dbl>,
##       #   M1955P819 <dbl>, M1979P426 <dbl>, M1957P982 <dbl>, M1979P369 <dbl>,
##       #   M1690P1397 <dbl>, M1978P318 <dbl>, M1956P853 <dbl>, M1979P381 <dbl>,
##       #   M1960P1219 <dbl>, M1554P112 <dbl>, M1980P533 <dbl>, M1554P138 <dbl>,
…
obj$data$otu_rarefied <- rarefy_obs(obj, "otu_counts")

## No `cols` specified, so using all numeric columns:
##    M1981P563, M1977P1709, M1980P502, M1981P606 ... M1955P747, M1978P342, M1955P778

## Rarefying to 1857 since that is the lowest sample total.

print(obj)

## <Taxmap>
##   489 taxa: aad. Bacteria, aaf. Proteobacteria ... ccz. Enterococcaceae, cfp. Dermacoccaceae
##   489 edges: NA->aad, aad->aaf, aad->aag, aad->aah ... amj->byk, aqy->ccz, amj->cfp
##   2 data sets:
##     otu_counts:
##       # A tibble: 6,694 x 293
##         taxon_id M1981P563 M1977P1709 M1980P502 M1981P606 M1981P599 M1981P611 M1981P587
##         <chr>        <dbl>      <dbl>     <dbl>     <dbl>     <dbl>     <dbl>     <dbl>
##       1 ben             0.         0.        0.        0.        0.        0.       24.
##       2 beo         10251.        59.    15857.      309.      134.       90.    11391.
##       3 ben          1447.      2496.     2421.     3331.      143.     1847.     2120.
##       # ... with 6,691 more rows, and 285 more variables: M1982P729 <dbl>,
##       #   M1979P447 <dbl>, M1982P701 <dbl>, M1982P661 <dbl>, M1978P293 <dbl>,
##       #   M1980P462 <dbl>, M1555P221 <dbl>, M1980P471 <dbl>, M1979P422 <dbl>,
##       #   M1982P655 <dbl>, M1554P182 <dbl>, M1981P623 <dbl>, M1555P239 <dbl>,
##       #   M1958P1020 <dbl>, M1555P205 <dbl>, M1959P1121 <dbl>, M1551P83 <dbl>,
##       #   M1961P1359 <dbl>, M1551P21 <dbl>, M1690P1399 <dbl>, M1555P214 <dbl>,
##       #   M1955P819 <dbl>, M1979P426 <dbl>, M1957P982 <dbl>, M1979P369 <dbl>,
##       #   M1690P1397 <dbl>, M1978P318 <dbl>, M1956P853 <dbl>, M1979P381 <dbl>,
##       #   M1960P1219 <dbl>, M1554P112 <dbl>, M1980P533 <dbl>, M1554P138 <dbl>,
…
##       #   M1980P532 <dbl>, M1977P1714 <dbl>, M1981P597 <dbl>, M1977P1705 <dbl>,
##       #   M1955P764 <dbl>, M1981P588 <dbl>, M1982P709 <dbl>, M1980P475 <dbl>,
##       #   M1980P539 <dbl>, M1982P645 <dbl>, M1981P577 <dbl>, M1980P535 <dbl>,
##       #   M1981P609 <dbl>, M1554P132 <dbl>, M1981P556 <dbl>, M1551P92 <dbl>,
##       #   M1981P638 <dbl>, M1551P67 <dbl>, M1979P439 <dbl>, M1551P37 <dbl>,
##       #   M1981P586 <dbl>, M1555P256 <dbl>, M1961P1298 <dbl>, M1554P124 <dbl>,
##       #   M1955P814 <dbl>, M1555P238 <dbl>, M1961P1308 <dbl>, M1979P378 <dbl>,
##       #   M1982P705 <dbl>, M1555P212 <dbl>, M1980P481 <dbl>, M1979P383 <dbl>,
##       #   M1981P632 <dbl>, M1555P240 <dbl>, M1981P561 <dbl>, M1554P128 <dbl>,
##       #   M1982P664 <dbl>, M1978P356 <dbl>, M1980P538 <dbl>, M1980P499 <dbl>,
##       #   M1982P683 <dbl>, M1980P507 <dbl>, M1980P501 <dbl>, M1955P745 <dbl>,
##       #   M1977P1711 <dbl>, M1980P476 <dbl>, M1982P646 <dbl>, M1982P703 <dbl>,
##       #   M1981P584 <dbl>, M1980P470 <dbl>, M1956P899 <dbl>, …
##     otu_rarefied:
##       # A tibble: 6,694 x 293
##         taxon_id M1981P563 M1977P1709 M1980P502 M1981P606 M1981P599 M1981P611 M1981P587
##         <chr>        <dbl>      <dbl>     <dbl>     <dbl>     <dbl>     <dbl>     <dbl>
##       1 ben             0.         0.        0.        0.        0.        0.        0.
##       2 beo           354.         0.      453.        7.      134.        1.      383.
##       3 ben            67.        28.       72.       77.      143.       31.       64.
##       # ... with 6,691 more rows, and 285 more variables: M1982P729 <dbl>,
##       #   M1979P447 <dbl>, M1982P701 <dbl>, M1982P661 <dbl>, M1978P293 <dbl>,
##       #   M1980P462 <dbl>, M1555P221 <dbl>, M1980P471 <dbl>, M1979P422 <dbl>,
##       #   M1982P655 <dbl>, M1554P182 <dbl>, M1981P623 <dbl>, M1555P239 <dbl>,
##       #   M1958P1020 <dbl>, M1555P205 <dbl>, M1959P1121 <dbl>, M1551P83 <dbl>,
##       #   M1961P1359 <dbl>, M1551P21 <dbl>, M1690P1399 <dbl>, M1555P214 <dbl>,
##       #   M1955P819 <dbl>, M1979P426 <dbl>, M1957P982 <dbl>, M1979P369 <dbl>,
##       #   M1690P1397 <dbl>, M1978P318 <dbl>, M1956P853 <dbl>, M1979P381 <dbl>,
##       #   M1960P1219 <dbl>, M1554P112 <dbl>, M1980P533 <dbl>, M1554P138 <dbl>,
…
This probably means that some OTUs now have no reads in the rarefied dataset. Lets remove those like we did before. However, since there is now two tables, we should not remove any taxa since they still might be used in the rarefied table, so we will not add the drop_taxa = TRUE option this time.

no_reads <- rowSums(obj$data$otu_rarefied[, sample_data$SampleID]) == 0
obj <- filter_obs(obj, "otu_rarefied", ! no_reads)
print(obj)

## <Taxmap>
##   489 taxa: aad. Bacteria, aaf. Proteobacteria ... ccz. Enterococcaceae, cfp. Dermacoccaceae
##   489 edges: NA->aad, aad->aaf, aad->aag, aad->aah ... amj->byk, aqy->ccz, amj->cfp
##   2 data sets:
##     otu_counts:
##       # A tibble: 6,694 x 293
##         taxon_id M1981P563 M1977P1709 M1980P502 M1981P606 M1981P599 M1981P611 M1981P587
##         <chr>        <dbl>      <dbl>     <dbl>     <dbl>     <dbl>     <dbl>     <dbl>
##       1 ben             0.         0.        0.        0.        0.        0.       24.
##       2 beo         10251.        59.    15857.      309.      134.       90.    11391.
##       3 ben          1447.      2496.     2421.     3331.      143.     1847.     2120.
##       # ... with 6,691 more rows, and 285 more variables: M1982P729 <dbl>,
##       #   M1979P447 <dbl>, M1982P701 <dbl>, M1982P661 <dbl>, M1978P293 <dbl>,
##       #   M1980P462 <dbl>, M1555P221 <dbl>, M1980P471 <dbl>, M1979P422 <dbl>,
##       #   M1982P655 <dbl>, M1554P182 <dbl>, M1981P623 <dbl>, M1555P239 <dbl>,
##       #   M1958P1020 <dbl>, M1555P205 <dbl>, M1959P1121 <dbl>, M1551P83 <dbl>,
##       #   M1961P1359 <dbl>, M1551P21 <dbl>, M1690P1399 <dbl>, M1555P214 <dbl>,
##       #   M1955P819 <dbl>, M1979P426 <dbl>, M1957P982 <dbl>, M1979P369 <dbl>,
##       #   M1690P1397 <dbl>, M1978P318 <dbl>, M1956P853 <dbl>, M1979P381 <dbl>,
##       #   M1960P1219 <dbl>, M1554P112 <dbl>, M1980P533 <dbl>, M1554P138 <dbl>,
…
##       #   M1980P532 <dbl>, M1977P1714 <dbl>, M1981P597 <dbl>, M1977P1705 <dbl>,
##       #   M1955P764 <dbl>, M1981P588 <dbl>, M1982P709 <dbl>, M1980P475 <dbl>,
##       #   M1980P539 <dbl>, M1982P645 <dbl>, M1981P577 <dbl>, M1980P535 <dbl>,
##       #   M1981P609 <dbl>, M1554P132 <dbl>, M1981P556 <dbl>, M1551P92 <dbl>,
##       #   M1981P638 <dbl>, M1551P67 <dbl>, M1979P439 <dbl>, M1551P37 <dbl>,
##       #   M1981P586 <dbl>, M1555P256 <dbl>, M1961P1298 <dbl>, M1554P124 <dbl>,
##       #   M1955P814 <dbl>, M1555P238 <dbl>, M1961P1308 <dbl>, M1979P378 <dbl>,
##       #   M1982P705 <dbl>, M1555P212 <dbl>, M1980P481 <dbl>, M1979P383 <dbl>,
##       #   M1981P632 <dbl>, M1555P240 <dbl>, M1981P561 <dbl>, M1554P128 <dbl>,
##       #   M1982P664 <dbl>, M1978P356 <dbl>, M1980P538 <dbl>, M1980P499 <dbl>,
##       #   M1982P683 <dbl>, M1980P507 <dbl>, M1980P501 <dbl>, M1955P745 <dbl>,
##       #   M1977P1711 <dbl>, M1980P476 <dbl>, M1982P646 <dbl>, M1982P703 <dbl>,
##       #   M1981P584 <dbl>, M1980P470 <dbl>, M1956P899 <dbl>, …
##     otu_rarefied:
##       # A tibble: 4,999 x 293
##         taxon_id M1981P563 M1977P1709 M1980P502 M1981P606 M1981P599 M1981P611 M1981P587
##         <chr>        <dbl>      <dbl>     <dbl>     <dbl>     <dbl>     <dbl>     <dbl>
##       1 ben             0.         0.        0.        0.        0.        0.        0.
##       2 beo           354.         0.      453.        7.      134.        1.      383.
##       3 ben            67.        28.       72.       77.      143.       31.       64.
##       # ... with 4,996 more rows, and 285 more variables: M1982P729 <dbl>,
##       #   M1979P447 <dbl>, M1982P701 <dbl>, M1982P661 <dbl>, M1978P293 <dbl>,
##       #   M1980P462 <dbl>, M1555P221 <dbl>, M1980P471 <dbl>, M1979P422 <dbl>,
##       #   M1982P655 <dbl>, M1554P182 <dbl>, M1981P623 <dbl>, M1555P239 <dbl>,
##       #   M1958P1020 <dbl>, M1555P205 <dbl>, M1959P1121 <dbl>, M1551P83 <dbl>,
##       #   M1961P1359 <dbl>, M1551P21 <dbl>, M1690P1399 <dbl>, M1555P214 <dbl>,
##       #   M1955P819 <dbl>, M1979P426 <dbl>, M1957P982 <dbl>, M1979P369 <dbl>,
##       #   M1690P1397 <dbl>, M1978P318 <dbl>, M1956P853 <dbl>, M1979P381 <dbl>,
##       #   M1960P1219 <dbl>, M1554P112 <dbl>, M1980P533 <dbl>, M1554P138 <dbl>,
…
Converting to presence/absence

Many researchers believe that read depth is not informative due to PCR and sequencing biases. Therefore, instead of comparing read counts, the counts can be converted to presence or absence of an OTU in a given sample. This can be done like so:

counts_to_presence(obj, "otu_rarefied")

## No `cols` specified, so using all numeric columns:
##    M1981P563, M1977P1709, M1980P502, M1981P606 ... M1955P747, M1978P342, M1955P778

## # A tibble: 4,999 x 293
##    taxon_id M1981P563 M1977P1709 M1980P502 M1981P606 M1981P599 M1981P611 M1981P587 M1982P729
##    <chr>    <lgl>     <lgl>      <lgl>     <lgl>     <lgl>     <lgl>     <lgl>     <lgl>    
##  1 ben      FALSE     FALSE      FALSE     FALSE     FALSE     FALSE     FALSE     FALSE    
##  2 beo      TRUE      FALSE      TRUE      TRUE      TRUE      TRUE      TRUE      TRUE     
##  3 ben      TRUE      TRUE       TRUE      TRUE      TRUE      TRUE      TRUE      TRUE     
##  4 bep      TRUE      TRUE       TRUE      TRUE      FALSE     TRUE      TRUE      TRUE     
##  5 beq      TRUE      TRUE       TRUE      TRUE      FALSE     TRUE      TRUE      TRUE     
##  6 amk      TRUE      TRUE       TRUE      TRUE      TRUE      TRUE      TRUE      TRUE     
##  7 bes      TRUE      TRUE       FALSE     TRUE      FALSE     TRUE      TRUE      TRUE     
##  8 bet      FALSE     TRUE       TRUE      FALSE     TRUE      FALSE     TRUE      TRUE     
##  9 beu      TRUE      TRUE       TRUE      TRUE      FALSE     FALSE     TRUE      FALSE    
## 10 bev      TRUE      TRUE       TRUE      TRUE      FALSE     TRUE      FALSE     TRUE     
## # ... with 4,989 more rows, and 284 more variables: M1979P447 <lgl>, M1982P701 <lgl>,
## #   M1982P661 <lgl>, M1978P293 <lgl>, M1980P462 <lgl>, M1555P221 <lgl>, M1980P471 <lgl>,
## #   M1979P422 <lgl>, M1982P655 <lgl>, M1554P182 <lgl>, M1981P623 <lgl>, M1555P239 <lgl>,
## #   M1958P1020 <lgl>, M1555P205 <lgl>, M1959P1121 <lgl>, M1551P83 <lgl>, M1961P1359 <lgl>,
## #   M1551P21 <lgl>, M1690P1399 <lgl>, M1555P214 <lgl>, M1955P819 <lgl>, M1979P426 <lgl>,
## #   M1957P982 <lgl>, M1979P369 <lgl>, M1690P1397 <lgl>, M1978P318 <lgl>, M1956P853 <lgl>,
## #   M1979P381 <lgl>, M1960P1219 <lgl>, M1554P112 <lgl>, M1980P533 <lgl>, M1554P138 <lgl>,
## #   M1982P711 <lgl>, M1978P307 <lgl>, M1982P696 <lgl>, M1555P231 <lgl>, M1980P520 <lgl>,
## #   M1555P190 <lgl>, M1955P739 <lgl>, M1981P578 <lgl>, M1980P506 <lgl>, M1981P631 <lgl>,
…
Show Answer

Around 40,000 reads.

2) Look at the documentation for rarefy_obs. Rarefy the sample OTU counts to 1000 reads.

Show solution

rarefy_obs(obj, "otu_counts", sample_size = 1000)

## No `cols` specified, so using all numeric columns:
##    M1981P563, M1977P1709, M1980P502, M1981P606 ... M1955P747, M1978P342, M1955P778

## # A tibble: 6,694 x 293
##    taxon_id M1981P563 M1977P1709 M1980P502 M1981P606 M1981P599 M1981P611 M1981P587 M1982P729
##    <chr>        <dbl>      <dbl>     <dbl>     <dbl>     <dbl>     <dbl>     <dbl>     <dbl>
##  1 ben             0.         0.        0.        0.        0.        0.        1.        0.
##  2 beo           189.         0.      252.        3.       78.        2.      204.        1.
##  3 ben            33.        21.       42.       31.       74.       21.       46.       19.
##  4 bep             3.         1.        3.        6.        0.        3.        2.        6.
##  5 beq             2.        34.        1.       32.        0.       26.        1.       32.
##  6 amk            43.         2.       92.       10.      120.        1.       57.        7.
##  7 bes             0.        27.        0.       19.        0.       37.        5.       12.
##  8 bet             1.         1.        6.        3.       10.        2.        6.        1.
##  9 beu            45.         0.       51.        4.        0.        0.       76.        0.
## 10 bev             0.        19.        0.       18.        0.       20.        0.       30.
## # ... with 6,684 more rows, and 284 more variables: M1979P447 <dbl>, M1982P701 <dbl>,
## #   M1982P661 <dbl>, M1978P293 <dbl>, M1980P462 <dbl>, M1555P221 <dbl>, M1980P471 <dbl>,
## #   M1979P422 <dbl>, M1982P655 <dbl>, M1554P182 <dbl>, M1981P623 <dbl>, M1555P239 <dbl>,
## #   M1958P1020 <dbl>, M1555P205 <dbl>, M1959P1121 <dbl>, M1551P83 <dbl>, M1961P1359 <dbl>,
## #   M1551P21 <dbl>, M1690P1399 <dbl>, M1555P214 <dbl>, M1955P819 <dbl>, M1979P426 <dbl>,
## #   M1957P982 <dbl>, M1979P369 <dbl>, M1690P1397 <dbl>, M1978P318 <dbl>, M1956P853 <dbl>,
## #   M1979P381 <dbl>, M1960P1219 <dbl>, M1554P112 <dbl>, M1980P533 <dbl>, M1554P138 <dbl>,
## #   M1982P711 <dbl>, M1978P307 <dbl>, M1982P696 <dbl>, M1555P231 <dbl>, M1980P520 <dbl>,
## #   M1555P190 <dbl>, M1955P739 <dbl>, M1981P578 <dbl>, M1980P506 <dbl>, M1981P631 <dbl>,
…
