…
load("ps_obj.Rdata")

Plotting taxon abundance with heat trees

Alpha diversity statistics capture the diversity of whole samples in a single number, but to see the abundance of each taxon in a group of samples (e.g., root samples), we need to use other techniques. Stacked barcharts are typically used for this purpose, but we will be using heat trees. First, we need to calculate the abundance of each taxon for a set of samples from our OTU abundance information. We can use the calc_taxon_abund function to do this, grouping by a sample characteristic:

obj$data$type_abund <- calc_taxon_abund(obj, "otu_rarefied",
                                        cols = sample_data$SampleID,
                                        groups = sample_data$Type)

## Summing per-taxon counts from 292 columns in 2 groups for 489 taxa

print(obj$data$type_abund)

## # A tibble: 489 x 3
##    taxon_id    leaf    root
##  * <chr>      <dbl>   <dbl>
##  1 aad      271122. 271122.
##  2 aaf      175195. 123773.
##  3 aag       28010.  75115.
##  4 aah       19116.   4137.
##  5 aai       43662.  29404.
##  6 aaj        1144.   1195.
##  7 aak         369.   7350.
##  8 aal         284.   8723.
##  9 aam         213.   3625.
## 10 aan        1548.  12523.
## # ... with 479 more rows
…
Before we can make a differential heat tree, we need to calculate the difference in abundance for each taxon between groups of samples, such as root vs leaf samples. There are many ways this can be done, ranging from simple differences in mean read counts, to outputs from specialized programs designed for microbiome data. We will be using a function in metacoder called compare_groups to do the comparisons. First however, we need to calculate the per-taxon abundance from our OTU counts. We can use the calc_taxon_abund function to do this:

obj$data$tax_abund <- calc_taxon_abund(obj, "otu_rarefied",
                                       cols = sample_data$SampleID)

## Summing per-taxon counts from 292 columns for 489 taxa

For each taxon, at every rank, the compare_groups function compares two groups of counts. We have to define which sample belongs to which groups using groups option:

obj$data$diff_table <- compare_groups(obj, dataset = "tax_abund",
                                      cols = sample_data$SampleID,
                                      groups = sample_data$Type)
print(obj$data$diff_table)

## # A tibble: 489 x 7
##    taxon_id treatment_1 treatment_2 log2_median_ratio median_diff mean_diff wilcox_p_value
##    <chr>    <chr>       <chr>                   <dbl>       <dbl>     <dbl>          <dbl>
##  1 aad      leaf        root                    0.           0.       0.        NaN       
##  2 aaf      leaf        root                    0.446      312.     352.          2.51e-17
##  3 aag      leaf        root                   -1.22      -266.    -323.          9.87e-43
##  4 aah      leaf        root                    2.00        46.5    103.          3.86e-18
##  5 aai      leaf        root                    0.440       69.5     97.7         1.03e- 2
##  6 aaj      leaf        root                   -1.81        -5.00    -0.349       2.88e- 8
##  7 aak      leaf        root                 -Inf          -50.0    -47.8         4.36e-49
##  8 aal      leaf        root                 -Inf          -54.0    -57.8         2.71e-51
##  9 aam      leaf        root                 -Inf          -24.0    -23.4         2.42e-49
## 10 aan      leaf        root                   -4.82       -81.5    -75.2         1.04e-44
## # ... with 479 more rows
…
What color corresponds to each group depends on the order they were given in the compare_groups function. Since “leaf” is “treatment_1” in the “diff_table”, and “log2_median_ratio” is defined as “log2(treatment_1 / treatment_2)”, when a taxon has more counts in leaf samples, the ratio is positive, therefore taxa more abundant in leafs are colored magenta in this case.

Comparing taxon abundance with more than 2 groups

For pair-wise comparisons with more than two groups we have developed a graphing technique we call a heat tree matrix, in which trees are made for all pairs of sample groupings and arranged in a matrix with a larger key tree that has the taxon names and a legend. The code to do this is similar to the code for making a single differential heat tree like we did above, but uses the heat_tree_matrix function. First we need to use compare_groups to generate data for all pair-wise comparisons for a grouping with more than two treatments. The code below compares all the sites used in this study to eachother:

obj$data$diff_table <- compare_groups(obj, dataset = "tax_abund",
                                      cols = sample_data$SampleID,
                                      groups = sample_data$Site)
print(obj$data$diff_table)

## # A tibble: 1,467 x 7
##    taxon_id treatment_1 treatment_2 log2_median_ratio median_diff mean_diff wilcox_p_value
##    <chr>    <chr>       <chr>                   <dbl>       <dbl>     <dbl>          <dbl>
##  1 aad      Mah         Jam                     0.           0.       0.        NaN       
##  2 aaf      Mah         Jam                     0.186      114.    -174.          8.01e- 1
##  3 aag      Mah         Jam                    -0.107      -27.5    -58.4         7.99e- 1
##  4 aah      Mah         Jam                     0.752       13.0     13.5         2.64e- 1
##  5 aai      Mah         Jam                     0.867      103.     197.          2.09e-13
##  6 aaj      Mah         Jam                     0.322        1.00     0.622       4.17e- 1
##  7 aak      Mah         Jam                    -0.112       -1.50    -2.60        9.68e- 1
##  8 aal      Mah         Jam                     0.307        4.50     9.90        1.32e- 1
##  9 aam      Mah         Jam                    -0.900       -6.50    -3.78        7.18e- 2
## 10 aan      Mah         Jam                     0.186        4.00    12.3         6.23e- 3
## # ... with 1,457 more rows
…
