Manipulating taxonomic data
…
Normal tabular data is pretty straight forward to manipulate (assuming you know some R already), but taxonomic data is hierarchical, making it much harder to work with. It gets even more complicated when there are other data mapped to the taxonomy.

For example, if we want to remove a bacterial phylum from the data, do we also remove all of the taxa within that phylum? If so, how do we identify which taxa are in that phylum? If data are mapped to taxa within that phylum, do we also remove those? After all, even if the phylum and the taxa within it are removed, we still know that all the data that were mapped to them are bacteria of some kind, so do we just throw those data out, or reassign them to the Bacteria taxon?

The answer to these kind of questions will depend of our data and what we want to do with it.

Subsetting tabular data (background/review)

The functions to subset taxonomic information in taxmap objects (the format our example data is in) provided by the taxa package are modeled after functions in the dplyr package for manipulating tabular data (@wickham2015dplyr). These dplyr functions are alternatives to the standard R indexing (e.g. [, [[, and $) designed to be be more intuitive and consistent. Since an understanding of these functions will help with the analogous (and more complicated) functions for taxonomic data, we will start by practicing these. Fortunately, we have a tabular data set in need of some subsetting: our sample data.

First, lets take another look at our sample data:

print(sample_data)

## # A tibble: 1,698 x 16
##      SampleID        Name Plant_ID  Type Experiment Cohort Harvested   Age  Site Treatment    Line
##         <chr>       <chr>    <chr> <chr>      <chr>  <int>     <int> <int> <chr>     <chr>   <chr>
##  1 M1024P1788  R_026.root    R_026  root  fieldBCMA   2008      2011     3   LTM     field      26
##  2 M1024P1791  R_073.root    R_073  root  fieldBCMA   2008      2011     3   LTM     field      73
##  3 M1024P1795  R_088.root    R_088  root  fieldBCMA   2009      2011     2   LTM     field      88
##  4 M1024P1807  R_156.root    R_156  root  fieldBCMA   2009      2011     2   LTM     field     156
##  5  M1955P804  1_A_1.root    1_A_1  root      ecoGH     NA      2011    NA  Duke   MAHsoil par10A6
##  6  M1956P837 1_A_12.root   1_A_12  root      ecoGH     NA      2011    NA  Duke   MAHsoil  mah38B
##  7  M1957P983  1_A_3.root    1_A_3  root      ecoGH     NA      2011    NA  Duke   MAHsoil silLow3
##  8  M1956P845  1_A_4.root    1_A_4  root      ecoGH     NA      2011    NA  Duke   MAHsoil par10A6
##  9  M1957P987  1_A_7.root    1_A_7  root      ecoGH     NA      2011    NA  Duke   MAHsoil  par9A2
## 10  M1957P923  1_A_8.root    1_A_8  root      ecoGH     NA      2011    NA  Duke   MAHsoil  mil54A
## # ... with 1,688 more rows, and 5 more variables: Genotype <chr>, Block <chr>, oldPlate <chr>,
## #   newPlate <chr>, Analysis <chr>
…
