Getting data into R
…
Wagner et al. (2016) released their raw data with the article and it is available here on dryad. This is a great example of how to share your raw data!

There are many functions commonly used to read tabular data, including the traditional ones like read.table and read.csv, but we will be using functions from the new readr package, which returns “tibbles” instead of data.frames (A “table” in R). Tibbles are a type of data.frame with some fancier printing and more consistent behavior. Lets read in the raw OTU table first:

library(readr) # Loads the readr package so we can use `read_tsv`
otu_data <- read_tsv("data/otuTable97.txt")
print(otu_data) # You can also enter `otu_data` to print it

## # A tibble: 47,806 x 1,699
##    OTU_ID M1024P1833 M1551P81 M1551P57 M1551P85 M1551P28 M1551P29 M1551P38 M1551P90 M1551P71
##     <int>      <dbl>    <dbl>    <dbl>    <dbl>    <dbl>    <dbl>    <dbl>    <dbl>    <dbl>
##  1      1          0        0        0        0        0        0        0        0        0
##  2      2         41       22        4      726   112492        2      413        2        1
##  3      3         67       65       12    13514        1        4    13314       70     5929
##  4      4       3229    13679     1832      951      113     2496      567     2428     2156
##  5      5       1200       92     3530     2008        0      183     2087      292     1058
##  6      6        219     1980     1200      499        1      781      214     2273      171
##  7      7        485     5123      755     4080      443     1278     2193      401     5320
##  8      8        840     7079     3760       22        0     2699       22     2870       32
##  9      9         40       82       91      881        1      449     1121       90     2283
## 10     10         11       79      277     2879        1        0     6811       14      243
## # ... with 47,796 more rows, and 1,689 more variables: M1551P12 <dbl>, M1551P84 <dbl>,
## #   M1551P48 <dbl>, M1551P4 <dbl>, M1551P52 <dbl>, M1551P3 <dbl>, M1551P15 <dbl>, M1551P31 <dbl>,
## #   M1551P75 <dbl>, M1551P88 <dbl>, M1551P47 <dbl>, M1551P77 <dbl>, M1551P86 <dbl>, M1551P50 <dbl>,
## #   M1551P37 <dbl>, M1551P34 <dbl>, M1551P64 <dbl>, M1551P91 <dbl>, M1551P41 <dbl>, M1551P78 <dbl>,
## #   M1551P46 <dbl>, M1551P40 <dbl>, M1551P74 <dbl>, M1551P72 <dbl>, M1551P14 <dbl>, M1551P89 <dbl>,
## #   M1551P67 <dbl>, M1551P1 <dbl>, M1551P10 <dbl>, M1551P18 <dbl>, M1551P76 <dbl>, M1551P44 <dbl>,
## #   M1551P73 <dbl>, M1551P82 <dbl>, M1551P92 <dbl>, M1551P21 <dbl>, M1551P24 <dbl>, M1551P87 <dbl>,
## #   M1551P6 <dbl>, M1551P43 <dbl>, M1551P9 <dbl>, M1551P66 <dbl>, M1551P68 <dbl>, M1551P8 <dbl>,
## #   M1551P30 <dbl>, M1551P2 <dbl>, M1551P33 <dbl>, M1551P83 <dbl>, M1551P80 <dbl>, M1551P39 <dbl>,
…
This is a big data set, with 47806 rows (OTUs) and 1699 columns (1698 samples and an OTU ID). If your computer cannot load this file, don’t worry, we will provide a subset later for the rest of the workshop.

In this data set, the taxonomic classifications for the OTUs are in a different file. This information could have been included as additional columns in the OTU table and often is in other data sets.

tax_data <- read_tsv("data/taxAssignments97.txt")
print(tax_data) # You can also enter `tax_data` to print it

## # A tibble: 47,806 x 8
##    `OTU ID`  taxonomy                       Kingdom  Phylum  Class    Order    Family    Confidence
##    <chr>     <chr>                          <chr>    <chr>   <chr>    <chr>    <chr>          <dbl>
##  1 OTU_1     Unassigned                     Unassig… Unassi… Unassig… Unassig… Unassign…       1   
##  2 OTU_10    Root;k__Bacteria;p__Bacteroid… Bacteria Bacter… Sphingo… Sphingo… Sphingob…       1   
##  3 OTU_100   Root;k__Bacteria;p__Cyanobact… Bacteria Cyanob… Chlorop… Chlorop… NA              1   
##  4 OTU_1000  Root;k__Bacteria;p__Actinobac… Bacteria Actino… Actinob… Actinom… Actinosy…       0.67
##  5 OTU_10000 Unassigned                     Unassig… Unassi… Unassig… Unassig… Unassign…       1   
##  6 OTU_10001 Root;k__Bacteria;p__Chlamydia… Bacteria Chlamy… Chlamyd… Chlamyd… Parachla…       1   
##  7 OTU_10002 Root;k__Bacteria;p__Proteobac… Bacteria Proteo… Alphapr… NA       NA              1   
##  8 OTU_10003 Unassigned                     Unassig… Unassi… Unassig… Unassig… Unassign…       1   
##  9 OTU_10004 Unassigned                     Unassig… Unassi… Unassig… Unassig… Unassign…       1   
## 10 OTU_10005 Root;k__Bacteria;p__Cyanobact… Bacteria Cyanob… 4C0d-2   MLE1-12  NA              1   
## # ... with 47,796 more rows

Although these data are very well-formatted compared to most, it is not perfect. The “OTU ID” column contains a space in the name (hence the back ticks), which makes it a bit more annoying to work with in R. More importantly, the OTU IDs in the taxonomy table are prefixed with “OTU_” and those in the OTU table are not, so we have to remove that prefix to make the two match up:

tax_data$`OTU ID` <- sub(tax_data$`OTU ID`, # ` are needed because of the space
                         pattern = "OTU_", replacement = "")
print(tax_data) 

## # A tibble: 47,806 x 8
##    `OTU ID` taxonomy                       Kingdom  Phylum   Class    Order    Family    Confidence
##    <chr>    <chr>                          <chr>    <chr>    <chr>    <chr>    <chr>          <dbl>
##  1 1        Unassigned                     Unassig… Unassig… Unassig… Unassig… Unassign…       1   
##  2 10       Root;k__Bacteria;p__Bacteroid… Bacteria Bactero… Sphingo… Sphingo… Sphingob…       1   
##  3 100      Root;k__Bacteria;p__Cyanobact… Bacteria Cyanoba… Chlorop… Chlorop… NA              1   
##  4 1000     Root;k__Bacteria;p__Actinobac… Bacteria Actinob… Actinob… Actinom… Actinosy…       0.67
##  5 10000    Unassigned                     Unassig… Unassig… Unassig… Unassig… Unassign…       1   
##  6 10001    Root;k__Bacteria;p__Chlamydia… Bacteria Chlamyd… Chlamyd… Chlamyd… Parachla…       1   
##  7 10002    Root;k__Bacteria;p__Proteobac… Bacteria Proteob… Alphapr… NA       NA              1   
##  8 10003    Unassigned                     Unassig… Unassig… Unassig… Unassig… Unassign…       1   
##  9 10004    Unassigned                     Unassig… Unassig… Unassig… Unassig… Unassign…       1   
## 10 10005    Root;k__Bacteria;p__Cyanobact… Bacteria Cyanoba… 4C0d-2   MLE1-12  NA              1   
## # ... with 47,796 more rows

Although we could proceed with the analysis using separate OTU and taxonomy tables, lets combine them to simplify things. Since the rows are in different order, we need to combine (aka “join”) them based on their OTU ID. We will use the dplyr package for this.

library(dplyr) # Loads the dplyr package so we can use `left_join`
tax_data$`OTU ID` <- as.character(tax_data$`OTU ID`) # Must be same type for join to work
otu_data$OTU_ID <- as.character(otu_data$OTU_ID) # Must be same type for join to work
otu_data <- left_join(otu_data, tax_data,
                      by = c("OTU_ID" = "OTU ID")) # identifies cols with shared IDs
print(otu_data)

## # A tibble: 47,806 x 1,706
##    OTU_ID M1024P1833 M1551P81 M1551P57 M1551P85 M1551P28 M1551P29 M1551P38 M1551P90 M1551P71
##    <chr>       <dbl>    <dbl>    <dbl>    <dbl>    <dbl>    <dbl>    <dbl>    <dbl>    <dbl>
##  1 1               0        0        0        0        0        0        0        0        0
##  2 2              41       22        4      726   112492        2      413        2        1
##  3 3              67       65       12    13514        1        4    13314       70     5929
##  4 4            3229    13679     1832      951      113     2496      567     2428     2156
##  5 5            1200       92     3530     2008        0      183     2087      292     1058
##  6 6             219     1980     1200      499        1      781      214     2273      171
##  7 7             485     5123      755     4080      443     1278     2193      401     5320
##  8 8             840     7079     3760       22        0     2699       22     2870       32
##  9 9              40       82       91      881        1      449     1121       90     2283
## 10 10             11       79      277     2879        1        0     6811       14      243
## # ... with 47,796 more rows, and 1,696 more variables: M1551P12 <dbl>, M1551P84 <dbl>,
## #   M1551P48 <dbl>, M1551P4 <dbl>, M1551P52 <dbl>, M1551P3 <dbl>, M1551P15 <dbl>, M1551P31 <dbl>,
## #   M1551P75 <dbl>, M1551P88 <dbl>, M1551P47 <dbl>, M1551P77 <dbl>, M1551P86 <dbl>, M1551P50 <dbl>,
## #   M1551P37 <dbl>, M1551P34 <dbl>, M1551P64 <dbl>, M1551P91 <dbl>, M1551P41 <dbl>, M1551P78 <dbl>,
## #   M1551P46 <dbl>, M1551P40 <dbl>, M1551P74 <dbl>, M1551P72 <dbl>, M1551P14 <dbl>, M1551P89 <dbl>,
## #   M1551P67 <dbl>, M1551P1 <dbl>, M1551P10 <dbl>, M1551P18 <dbl>, M1551P76 <dbl>, M1551P44 <dbl>,
## #   M1551P73 <dbl>, M1551P82 <dbl>, M1551P92 <dbl>, M1551P21 <dbl>, M1551P24 <dbl>, M1551P87 <dbl>,
## #   M1551P6 <dbl>, M1551P43 <dbl>, M1551P9 <dbl>, M1551P66 <dbl>, M1551P68 <dbl>, M1551P8 <dbl>,
## #   M1551P30 <dbl>, M1551P2 <dbl>, M1551P33 <dbl>, M1551P83 <dbl>, M1551P80 <dbl>, M1551P39 <dbl>,
…
There are so many columns that all of them are not shown in the print out, but we can verify that they are there by looking at the last 10 column names:

tail(colnames(otu_data), n = 10)

##  [1] "M1958P1043" "M1691P1526" "M1691P1557" "taxonomy"   "Kingdom"    "Phylum"     "Class"     
##  [8] "Order"      "Family"     "Confidence"

Next, lets load the sample data:

sample_data <- read_tsv("data/SMD.txt",
                        col_types = "cccccccccccccccc") # each "c" means a column of "character"
print(sample_data) # You can also enter `sample_data` to print it

## # A tibble: 1,698 x 16
##    SampleID  Name   Plant_ID Type  Experiment Cohort Harvested Age   Site  Treatment Line  Genotype
##    <chr>     <chr>  <chr>    <chr> <chr>      <chr>  <chr>     <chr> <chr> <chr>     <chr> <chr>   
##  1 M1024P17… R_026… R_026    root  fieldBCMA  2008   2011      3     LTM   field     26    ril     
##  2 M1024P17… R_073… R_073    root  fieldBCMA  2008   2011      3     LTM   field     73    ril     
##  3 M1024P17… R_088… R_088    root  fieldBCMA  2009   2011      2     LTM   field     88    ril     
##  4 M1024P18… R_156… R_156    root  fieldBCMA  2009   2011      2     LTM   field     156   ril     
##  5 M1955P804 1_A_1… 1_A_1    root  ecoGH      NA     2011      NA    Duke  MAHsoil   par1… PAR     
##  6 M1956P837 1_A_1… 1_A_12   root  ecoGH      NA     2011      NA    Duke  MAHsoil   mah3… MAH     
##  7 M1957P983 1_A_3… 1_A_3    root  ecoGH      NA     2011      NA    Duke  MAHsoil   silL… SIL     
##  8 M1956P845 1_A_4… 1_A_4    root  ecoGH      NA     2011      NA    Duke  MAHsoil   par1… PAR     
##  9 M1957P987 1_A_7… 1_A_7    root  ecoGH      NA     2011      NA    Duke  MAHsoil   par9… PAR     
## 10 M1957P923 1_A_8… 1_A_8    root  ecoGH      NA     2011      NA    Duke  MAHsoil   mil5… MIL     
## # ... with 1,688 more rows, and 4 more variables: Block <chr>, oldPlate <chr>, newPlate <chr>,
## #   Analysis <chr>
…
Above is the print out of a taxmap object. The first line tells us that the OTUs are assigned to 1558 unique taxa and lists their IDs and names. These taxon IDs were generated automatically when converting to the taxmap format and were not in the original data set. The second line describes how taxa relate to each other in the tree. Note how our original data are now inside this object:

print(obj$data$tax_data)

## # A tibble: 47,806 x 1,707
##    taxon_id OTU_ID M1024P1833 M1551P81 M1551P57 M1551P85 M1551P28 M1551P29 M1551P38 M1551P90
##    <chr>    <chr>       <dbl>    <dbl>    <dbl>    <dbl>    <dbl>    <dbl>    <dbl>    <dbl>
##  1 aab      1               0        0        0        0        0        0        0        0
##  2 ben      2              41       22        4      726   112492        2      413        2
##  3 beo      3              67       65       12    13514        1        4    13314       70
##  4 ben      4            3229    13679     1832      951      113     2496      567     2428
##  5 bep      5            1200       92     3530     2008        0      183     2087      292
##  6 beq      6             219     1980     1200      499        1      781      214     2273
##  7 ber      7             485     5123      755     4080      443     1278     2193      401
##  8 bes      8             840     7079     3760       22        0     2699       22     2870
##  9 bet      9              40       82       91      881        1      449     1121       90
## 10 beu      10             11       79      277     2879        1        0     6811       14
## # ... with 47,796 more rows, and 1,697 more variables: M1551P71 <dbl>, M1551P12 <dbl>,
## #   M1551P84 <dbl>, M1551P48 <dbl>, M1551P4 <dbl>, M1551P52 <dbl>, M1551P3 <dbl>, M1551P15 <dbl>,
## #   M1551P31 <dbl>, M1551P75 <dbl>, M1551P88 <dbl>, M1551P47 <dbl>, M1551P77 <dbl>, M1551P86 <dbl>,
## #   M1551P50 <dbl>, M1551P37 <dbl>, M1551P34 <dbl>, M1551P64 <dbl>, M1551P91 <dbl>, M1551P41 <dbl>,
## #   M1551P78 <dbl>, M1551P46 <dbl>, M1551P40 <dbl>, M1551P74 <dbl>, M1551P72 <dbl>, M1551P14 <dbl>,
## #   M1551P89 <dbl>, M1551P67 <dbl>, M1551P1 <dbl>, M1551P10 <dbl>, M1551P18 <dbl>, M1551P76 <dbl>,
## #   M1551P44 <dbl>, M1551P73 <dbl>, M1551P82 <dbl>, M1551P92 <dbl>, M1551P21 <dbl>, M1551P24 <dbl>,
## #   M1551P87 <dbl>, M1551P6 <dbl>, M1551P43 <dbl>, M1551P9 <dbl>, M1551P66 <dbl>, M1551P68 <dbl>,
## #   M1551P8 <dbl>, M1551P30 <dbl>, M1551P2 <dbl>, M1551P33 <dbl>, M1551P83 <dbl>, M1551P80 <dbl>,
…
Note how the taxon names do not have the rank information anymore:

head(obj$taxon_names())

##              aab              aac              aad              aae              aaf 
##     "Unassigned"           "Root"       "Bacteria"        "Archaea" "Proteobacteria" 
##              aag 
## "Actinobacteria"

Instead, the rank information (and any other capture group content) is in a separate data set:

obj$data$class_data

## # A tibble: 216,417 x 5
##    taxon_id input_index tax_rank name                regex_match           
##    <chr>          <int> <chr>    <chr>               <chr>                 
##  1 aab                1 ""       Unassigned          Unassigned            
##  2 aac                2 ""       Root                Root                  
##  3 aad                2 k        Bacteria            k__Bacteria           
##  4 aaf                2 p        Proteobacteria      p__Proteobacteria     
##  5 add                2 c        Alphaproteobacteria c__Alphaproteobacteria
##  6 amg                2 o        Rickettsiales       o__Rickettsiales      
##  7 ben                2 f        mitochondria        f__mitochondria       
##  8 aac                3 ""       Root                Root                  
##  9 aad                3 k        Bacteria            k__Bacteria           
## 10 aaf                3 p        Proteobacteria      p__Proteobacteria     
## # ... with 216,407 more rows
…
3) Try using lookup_tax_data to convert the table to a taxmap object, using the ncbi_seq_id column to look up the taxonomy associated with these Genbank accession numbers. NOTE: This requires an internet connection.

Show solution

lookup_tax_data(my_data, type = "seq_id", column = "ncbi_seq_id", database = "ncbi")

## <Taxmap>
##   33 taxa: 131567. cellular organisms, 2759. Eukaryota ... 9694. Panthera tigris
##   33 edges: NA->131567, 131567->2759, 2759->33154 ... 9688->9689, 9688->9694
##   2 data sets:
##     tax_data:
##       # A tibble: 33 x 4
##         taxon_id ncbi_name          ncbi_rank    ncbi_id
##         <chr>    <chr>              <chr>        <chr>  
##       1 131567   cellular organisms no rank      131567 
##       2 2759     Eukaryota          superkingdom 2759   
##       3 33154    Opisthokonta       no rank      33154  
##       # ... with 30 more rows
…
4) Try using lookup_tax_data to convert the table to a taxmap object, using the itis_taxon_id column to look up the taxonomic classifications from the Integrated Taxonomic Information System (ITIS) for these taxon IDs. NOTE: This requires an internet connection.

Show solution

lookup_tax_data(my_data, type = "taxon_id", column = "itis_taxon_id", database = "itis")

## <Taxmap>
##   22 taxa: 202423. Animalia, 914154. Bilateria ... 183806. Panthera tigris tigris
##   22 edges: NA->202423, 202423->914154 ... 180592->183805, 183805->183806
##   2 data sets:
##     tax_data:
##       # A tibble: 22 x 4
##         taxon_id itis_name     itis_rank    itis_id
##         <chr>    <chr>         <chr>        <chr>  
##       1 202423   Animalia      kingdom      202423 
##       2 914154   Bilateria     subkingdom   914154 
##       3 914156   Deuterostomia infrakingdom 914156 
##       # ... with 19 more rows
…
4) Use the extract_tax_data function to convert the headers to a taxmap object, using the NCBI accession number. The classification can be ignored (i.e. not given a capture group and key value) or stored as "info".

Show solution

extract_tax_data(headers,
                 key = c(my_acc_no = "seq_id", my_class = "info"),
                 regex = "^(.+)::(.+)$")

## <Taxmap>
##   33 taxa: 131567. cellular organisms, 2759. Eukaryota ... 9694. Panthera tigris
##   33 edges: NA->131567, 131567->2759, 2759->33154 ... 9688->9689, 9688->9694
##   2 data sets:
##     tax_data:
##       # A tibble: 33 x 4
##         taxon_id ncbi_name          ncbi_rank    ncbi_id
##         <chr>    <chr>              <chr>        <chr>  
##       1 131567   cellular organisms no rank      131567 
##       2 2759     Eukaryota          superkingdom 2759   
##       3 33154    Opisthokonta       no rank      33154  
##       # ... with 30 more rows
…
## <Taxmap>
##   8 taxa: b. mammalia, c. felidae, d. ursidae ... g. leo, h. tigris, i. americanus
##   8 edges: NA->b, b->c, b->d, c->e, d->f, e->g, e->h, f->i
##   2 data sets:
##     tax_data:
##       # A tibble: 3 x 4
##         taxon_id acc_no   my_class                       input                           
##         <chr>    <chr>    <chr>                          <chr>                           
##       1 g        FJ712037 class_mammalia;family_felidae… FJ712037::class_mammalia;family…
##       2 h        KC879292 class_mammalia;family_felidae… KC879292::class_mammalia;family…
##       3 i        HW243304 class_mammalia;family_ursidae… HW243304::class_mammalia;family…
##     class_data:
##       # A tibble: 12 x 4
##         taxon_id input_index tax_rank name    
##       * <chr>          <int> <chr>    <chr>   
##       1 b                  1 class    mammalia
##       2 c                  1 family   felidae 
##       3 e                  1 genus    panthera
##       # ... with 9 more rows
…
