Data quality control
…
## [1] 26947

So now 26947 of 33641 have no reads. We can remove them and the taxa they are assocaited with like so:

obj <- filter_obs(obj, "otu_counts", ! no_reads, drop_taxa = TRUE)
print(obj)

## <Taxmap>
##   489 taxa: aad. Bacteria ... axx. Fusobacteriales, bxz. Fusobacteriaceae
##   489 edges: NA->aad, aad->aaf, aaf->add ... aad->abx, abx->aja, aja->axx, axx->bxz
##   1 data sets:
##     otu_counts:
##       # A tibble: 6,694 x 293
##         taxon_id M1981P563 M1977P1709 M1980P502 M1981P606 M1981P599 M1981P611 M1981P587
##            <chr>     <dbl>      <dbl>     <dbl>     <dbl>     <dbl>     <dbl>     <dbl>
##       1      ben         0          0         0         0         0         0        24
##       2      beo     10251         59     15857       309       134        90     11391
##       3      ben      1447       2496      2421      3331       143      1847      2120
##       # ... with 6,691 more rows, and 285 more variables: M1982P729 <dbl>, M1979P447 <dbl>,
##       #   M1982P701 <dbl>, M1982P661 <dbl>, M1978P293 <dbl>, M1980P462 <dbl>, M1555P221 <dbl>,
##       #   M1980P471 <dbl>, M1979P422 <dbl>, M1982P655 <dbl>, M1554P182 <dbl>, M1981P623 <dbl>,
##       #   M1555P239 <dbl>, M1958P1020 <dbl>, M1555P205 <dbl>, M1959P1121 <dbl>, M1551P83 <dbl>,
##       #   M1961P1359 <dbl>, M1551P21 <dbl>, M1690P1399 <dbl>, M1555P214 <dbl>, M1955P819 <dbl>,
##       #   M1979P426 <dbl>, M1957P982 <dbl>, M1979P369 <dbl>, M1690P1397 <dbl>, M1978P318 <dbl>,
##       #   M1956P853 <dbl>, M1979P381 <dbl>, M1960P1219 <dbl>, M1554P112 <dbl>, M1980P533 <dbl>,
##       #   M1554P138 <dbl>, M1982P711 <dbl>, M1978P307 <dbl>, M1982P696 <dbl>, M1555P231 <dbl>,
##       #   M1980P520 <dbl>, M1555P190 <dbl>, M1955P739 <dbl>, M1981P578 <dbl>, M1980P506 <dbl>,
…
obj$data$otu_rarefied <- rarefy_obs(obj, "otu_counts")

## No `cols` specified, so using all numeric columns:
##    M1981P563, M1977P1709, M1980P502, M1981P606 ... M1955P747, M1978P342, M1955P778

## Rarefying to 1857 since that is the lowest sample total.

print(obj)

## <Taxmap>
##   489 taxa: aad. Bacteria ... axx. Fusobacteriales, bxz. Fusobacteriaceae
##   489 edges: NA->aad, aad->aaf, aaf->add ... aad->abx, abx->aja, aja->axx, axx->bxz
##   2 data sets:
##     otu_counts:
##       # A tibble: 6,694 x 293
##         taxon_id M1981P563 M1977P1709 M1980P502 M1981P606 M1981P599 M1981P611 M1981P587
##            <chr>     <dbl>      <dbl>     <dbl>     <dbl>     <dbl>     <dbl>     <dbl>
##       1      ben         0          0         0         0         0         0        24
##       2      beo     10251         59     15857       309       134        90     11391
##       3      ben      1447       2496      2421      3331       143      1847      2120
##       # ... with 6,691 more rows, and 285 more variables: M1982P729 <dbl>, M1979P447 <dbl>,
##       #   M1982P701 <dbl>, M1982P661 <dbl>, M1978P293 <dbl>, M1980P462 <dbl>, M1555P221 <dbl>,
##       #   M1980P471 <dbl>, M1979P422 <dbl>, M1982P655 <dbl>, M1554P182 <dbl>, M1981P623 <dbl>,
##       #   M1555P239 <dbl>, M1958P1020 <dbl>, M1555P205 <dbl>, M1959P1121 <dbl>, M1551P83 <dbl>,
##       #   M1961P1359 <dbl>, M1551P21 <dbl>, M1690P1399 <dbl>, M1555P214 <dbl>, M1955P819 <dbl>,
##       #   M1979P426 <dbl>, M1957P982 <dbl>, M1979P369 <dbl>, M1690P1397 <dbl>, M1978P318 <dbl>,
##       #   M1956P853 <dbl>, M1979P381 <dbl>, M1960P1219 <dbl>, M1554P112 <dbl>, M1980P533 <dbl>,
##       #   M1554P138 <dbl>, M1982P711 <dbl>, M1978P307 <dbl>, M1982P696 <dbl>, M1555P231 <dbl>,
##       #   M1980P520 <dbl>, M1555P190 <dbl>, M1955P739 <dbl>, M1981P578 <dbl>, M1980P506 <dbl>,
##       #   M1981P631 <dbl>, M1980P461 <dbl>, M1982P667 <dbl>, M1980P496 <dbl>, M1982P707 <dbl>,
##       #   M1980P469 <dbl>, M1980P486 <dbl>, M1980P532 <dbl>, M1977P1714 <dbl>, M1981P597 <dbl>,
##       #   M1977P1705 <dbl>, M1955P764 <dbl>, M1981P588 <dbl>, M1982P709 <dbl>, M1980P475 <dbl>,
##       #   M1980P539 <dbl>, M1982P645 <dbl>, M1981P577 <dbl>, M1980P535 <dbl>, M1981P609 <dbl>,
##       #   M1554P132 <dbl>, M1981P556 <dbl>, M1551P92 <dbl>, M1981P638 <dbl>, M1551P67 <dbl>,
##       #   M1979P439 <dbl>, M1551P37 <dbl>, M1981P586 <dbl>, M1555P256 <dbl>, M1961P1298 <dbl>,
##       #   M1554P124 <dbl>, M1955P814 <dbl>, M1555P238 <dbl>, M1961P1308 <dbl>, M1979P378 <dbl>,
##       #   M1982P705 <dbl>, M1555P212 <dbl>, M1980P481 <dbl>, M1979P383 <dbl>, M1981P632 <dbl>,
##       #   M1555P240 <dbl>, M1981P561 <dbl>, M1554P128 <dbl>, M1982P664 <dbl>, M1978P356 <dbl>,
##       #   M1980P538 <dbl>, M1980P499 <dbl>, M1982P683 <dbl>, M1980P507 <dbl>, M1980P501 <dbl>,
##       #   M1955P745 <dbl>, M1977P1711 <dbl>, M1980P476 <dbl>, M1982P646 <dbl>, M1982P703 <dbl>,
##       #   M1981P584 <dbl>, M1980P470 <dbl>, M1956P899 <dbl>, ...
##     otu_rarefied:
##       # A tibble: 6,694 x 293
##         taxon_id M1981P563 M1977P1709 M1980P502 M1981P606 M1981P599 M1981P611 M1981P587
##       *    <chr>     <dbl>      <dbl>     <dbl>     <dbl>     <dbl>     <dbl>     <dbl>
##       1      ben         0          0         0         0         0         0         0
##       2      beo       362          0       414         9       134         2       405
##       3      ben        44         31        79        61       143        40        95
##       # ... with 6,691 more rows, and 285 more variables: M1982P729 <dbl>, M1979P447 <dbl>,
##       #   M1982P701 <dbl>, M1982P661 <dbl>, M1978P293 <dbl>, M1980P462 <dbl>, M1555P221 <dbl>,
##       #   M1980P471 <dbl>, M1979P422 <dbl>, M1982P655 <dbl>, M1554P182 <dbl>, M1981P623 <dbl>,
##       #   M1555P239 <dbl>, M1958P1020 <dbl>, M1555P205 <dbl>, M1959P1121 <dbl>, M1551P83 <dbl>,
##       #   M1961P1359 <dbl>, M1551P21 <dbl>, M1690P1399 <dbl>, M1555P214 <dbl>, M1955P819 <dbl>,
##       #   M1979P426 <dbl>, M1957P982 <dbl>, M1979P369 <dbl>, M1690P1397 <dbl>, M1978P318 <dbl>,
##       #   M1956P853 <dbl>, M1979P381 <dbl>, M1960P1219 <dbl>, M1554P112 <dbl>, M1980P533 <dbl>,
##       #   M1554P138 <dbl>, M1982P711 <dbl>, M1978P307 <dbl>, M1982P696 <dbl>, M1555P231 <dbl>,
##       #   M1980P520 <dbl>, M1555P190 <dbl>, M1955P739 <dbl>, M1981P578 <dbl>, M1980P506 <dbl>,
…
